{
    "ERRORARRAY":[],
    "ACTION":"avail.datacenters",
    "DATA":[
        {
            "DATACENTERID":2,
            "LOCATION":"Dallas, TX, USA",
            "ABBR":"dallas"
        },
        {
            "DATACENTERID":3,
            "LOCATION":"Fremont, CA, USA",
            "ABBR":"fremont"
        },
        {
            "DATACENTERID":4,
            "LOCATION":"Atlanta, GA, USA",
            "ABBR":"atlanta"
        },
        {
            "DATACENTERID":6,
            "LOCATION":"Newark, NJ, USA",
            "ABBR":"newark"
        },
        {
            "DATACENTERID":7,
            "LOCATION":"London, England, UK",
            "ABBR":"london"
        },
        {
            "DATACENTERID":8,
            "LOCATION":"Tokyo, JP",
            "ABBR":"tokyo"
        }
    ]
}